Claude 4 and R Coding | Simon P. Couch – Simon P. Couch
…
Note

While the total durations of the evaluations are correct in the viewer, the timings of specific samples are now estimated. Given some changes in downstream packages, vitals has to estimate how long a given request takes rather than receiving the exact duration; this will be resolved down the line.

Analysis

At this point, we have access to are_eval, a data frame containing all of the results collected during the evaluation.

are_eval

# A tibble: 312 × 5
   model           id                          epoch score metadata
   <fct>           <chr>                       <int> <ord> <list>  
 1 Claude 4 Sonnet after-stat-bar-heights          1 I     <tibble>
 2 Claude 4 Sonnet after-stat-bar-heights          2 I     <tibble>
 3 Claude 4 Sonnet after-stat-bar-heights          3 I     <tibble>
 4 Claude 4 Sonnet conditional-grouped-summary     1 C     <tibble>
 5 Claude 4 Sonnet conditional-grouped-summary     2 P     <tibble>
 6 Claude 4 Sonnet conditional-grouped-summary     3 C     <tibble>
 7 Claude 4 Sonnet correlated-delays-reasoning     1 P     <tibble>
 8 Claude 4 Sonnet correlated-delays-reasoning     2 P     <tibble>
 9 Claude 4 Sonnet correlated-delays-reasoning     3 I     <tibble>
10 Claude 4 Sonnet curl-http-get                   1 C     <tibble>
# ℹ 302 more rows
…
