Measuring elapsed time to fit with tidymodels | Simon P. Couch
…
Now, loading the tidymodels packages:

library(tidymodels)

Getting started

For a simpler example, let’s start off with just fitting a parsnip model. We’ll use the taxi data from modeldata as an example, predicting whether a trip will result in a tip or not:

taxi

# A tibble: 10,000 × 7
   tip   distance company                      local dow   month  hour
   <fct>    <dbl> <fct>                        <fct> <fct> <fct> <int>
 1 yes      17.2  Chicago Independents         no    Thu   Feb      16
 2 yes       0.88 City Service                 yes   Thu   Mar       8
 3 yes      18.1  other                        no    Mon   Feb      18
 4 yes      20.7  Chicago Independents         no    Mon   Apr       8
 5 yes      12.2  Chicago Independents         no    Sun   Mar      21
 6 yes       0.94 Sun Taxi                     yes   Sat   Apr      23
 7 yes      17.5  Flash Cab                    no    Fri   Mar      12
 8 yes      17.7  other                        no    Sun   Jan       6
 9 yes       1.85 Taxicab Insurance Agency Llc no    Fri   Apr      12
10 yes       1.47 City Service                 no    Tue   Mar      14
# ℹ 9,990 more rows
…
Understanding fit time and performance

Every column in a tuning result that’s prefixed with a . has a collect_*() function associated with it that helps to summarize that column. We’ll use collect_extracts() to collect information on the extracts which are, in this case, elapsed fit times:

bt_extracts <- collect_extracts(bt_res)

bt_extracts

# A tibble: 100 × 5
   id     trees learn_rate .extracts        .config              
   <chr>  <int>      <dbl> <list>           <chr>                
 1 Fold01   922    0.00161 <tibble [1 × 3]> Preprocessor1_Model01
 2 Fold01  1804    0.00293 <tibble [1 × 3]> Preprocessor1_Model02
 3 Fold01    81    0.00394 <tibble [1 × 3]> Preprocessor1_Model03
 4 Fold01   445    0.00886 <tibble [1 × 3]> Preprocessor1_Model04
 5 Fold01  1074    0.0171  <tibble [1 × 3]> Preprocessor1_Model05
 6 Fold01   347    0.0218  <tibble [1 × 3]> Preprocessor1_Model06
 7 Fold01  1486    0.0393  <tibble [1 × 3]> Preprocessor1_Model07
 8 Fold01  1391    0.0604  <tibble [1 × 3]> Preprocessor1_Model08
 9 Fold01   788    0.111   <tibble [1 × 3]> Preprocessor1_Model09
10 Fold01  1609    0.203   <tibble [1 × 3]> Preprocessor1_Model10
# ℹ 90 more rows

Unnesting on .extracts so we can see some of those timings:

bt_extracts_unnested <- bt_extracts %>% unnest(cols = ".extracts")

bt_extracts_unnested

# A tibble: 100 × 7
   id     trees learn_rate stage    process_id elapsed .config              
   <chr>  <int>      <dbl> <chr>    <chr>        <dbl> <chr>                
 1 Fold01   922    0.00161 workflow workflow     4.94  Preprocessor1_Model01
 2 Fold01  1804    0.00293 workflow workflow     9.54  Preprocessor1_Model02
 3 Fold01    81    0.00394 workflow workflow     0.444 Preprocessor1_Model03
 4 Fold01   445    0.00886 workflow workflow     2.36  Preprocessor1_Model04
 5 Fold01  1074    0.0171  workflow workflow     5.40  Preprocessor1_Model05
 6 Fold01   347    0.0218  workflow workflow     1.8   Preprocessor1_Model06
 7 Fold01  1486    0.0393  workflow workflow     7.34  Preprocessor1_Model07
 8 Fold01  1391    0.0604  workflow workflow     6.99  Preprocessor1_Model08
 9 Fold01   788    0.111   workflow workflow     3.87  Preprocessor1_Model09
10 Fold01  1609    0.203   workflow workflow     7.99  Preprocessor1_Model10
# ℹ 90 more rows
…
The “clumps” of points are the 10 different unique combinations of trees and learn_rates that are fitted on 10 different resamples; identical hyperparameters lead to very similar fit times, in this case.

In use cases where we will go on to resample/train this model many times (such as in iterative search or continuous training) it may be advantageous for us to pick a model that fits as quickly as possible as long as it has comparable performance with the overall most performant model. We can integrate the information from collect_metrics() with collect_extracts() to see if there any quick-fitting models with comparable performance. First, collecting metrics:

bt_metrics <- collect_metrics(bt_res)

bt_metrics

# A tibble: 30 × 8
   trees learn_rate .metric     .estimator   mean     n  std_err .config        
   <int>      <dbl> <chr>       <chr>       <dbl> <int>    <dbl> <chr>          
 1   922    0.00161 accuracy    binary     0.924     10 0.00214  Preprocessor1_…
 2   922    0.00161 brier_class binary     0.0784    10 0.00128  Preprocessor1_…
 3   922    0.00161 roc_auc     binary     0.639     10 0.0112   Preprocessor1_…
 4  1804    0.00293 accuracy    binary     0.924     10 0.00218  Preprocessor1_…
 5  1804    0.00293 brier_class binary     0.0693    10 0.00160  Preprocessor1_…
 6  1804    0.00293 roc_auc     binary     0.628     10 0.0126   Preprocessor1_…
 7    81    0.00394 accuracy    binary     0.924     10 0.00212  Preprocessor1_…
 8    81    0.00394 brier_class binary     0.165     10 0.000467 Preprocessor1_…
 9    81    0.00394 roc_auc     binary     0.636     10 0.0110   Preprocessor1_…
10   445    0.00886 accuracy    binary     0.923     10 0.00211  Preprocessor1_…
# ℹ 20 more rows
…
bt_metrics_extracts

# A tibble: 30 × 9
   elapsed trees learn_rate .metric     .estimator   mean     n  std_err .config
     <dbl> <int>      <dbl> <chr>       <chr>       <dbl> <int>    <dbl> <chr>  
 1   4.95    922    0.00161 accuracy    binary     0.924     10 0.00214  Prepro…
 2   4.95    922    0.00161 brier_class binary     0.0784    10 0.00128  Prepro…
 3   4.95    922    0.00161 roc_auc     binary     0.639     10 0.0112   Prepro…
 4   9.55   1804    0.00293 accuracy    binary     0.924     10 0.00218  Prepro…
 5   9.55   1804    0.00293 brier_class binary     0.0693    10 0.00160  Prepro…
 6   9.55   1804    0.00293 roc_auc     binary     0.628     10 0.0126   Prepro…
 7   0.441    81    0.00394 accuracy    binary     0.924     10 0.00212  Prepro…
 8   0.441    81    0.00394 brier_class binary     0.165     10 0.000467 Prepro…
 9   0.441    81    0.00394 roc_auc     binary     0.636     10 0.0110   Prepro…
10   2.37    445    0.00886 accuracy    binary     0.923     10 0.00211  Prepro…
# ℹ 20 more rows
…
