How good are the GPT 4.1 models at writing R code? | Simon P. Couch – Simon P. Couch
…
are_eval

# A tibble: 390 × 5
   model             id                          epoch score metadata
   <fct>             <chr>                       <int> <ord> <list>  
 1 Claude Sonnet 3.7 after-stat-bar-heights          1 I     <tibble>
 2 Claude Sonnet 3.7 after-stat-bar-heights          2 I     <tibble>
 3 Claude Sonnet 3.7 after-stat-bar-heights          3 I     <tibble>
 4 Claude Sonnet 3.7 conditional-grouped-summary     1 P     <tibble>
 5 Claude Sonnet 3.7 conditional-grouped-summary     2 P     <tibble>
 6 Claude Sonnet 3.7 conditional-grouped-summary     3 C     <tibble>
 7 Claude Sonnet 3.7 correlated-delays-reasoning     1 P     <tibble>
 8 Claude Sonnet 3.7 correlated-delays-reasoning     2 C     <tibble>
 9 Claude Sonnet 3.7 correlated-delays-reasoning     3 P     <tibble>
10 Claude Sonnet 3.7 curl-http-get                   1 I     <tibble>
# ℹ 380 more rows
…
