Big Things (Developer Documentation pt. 4) | Simon P. Couch
…
In a similar vein, to be hosted on CRAN repositories, there is an effective 5MB bound on the size of a bundled R package. More specifically, “neither data nor documentation should exceed 5MB.” R packages, other than data and documentation, are largely (if not exclusively) plain text. Note, though, this bound is only relevant for the bundled package—files of any size can be stored in the source code as long as they are not included in the bundled version of the package sent to CRAN. Again, though, package developers must strike a balance between providing sufficient data and documentation to encourage a positive user experience and, on the other, minimizing bundled package size in order to come in under the 5MB limit.

There are several strategies beyond abbreviating example usages and unit testing coverage to decrease package check time and bundled size. For one, packages with Big inputs can provide example input objects that are the culmination of long-running computations to use throughout package examples. Further, documentation can lean more heavily on other help-file sections to document concepts in repeated long-form explanations and syntax in argument descriptions. Finally, there are several techniques, some more wiggly than others, to conditionally run examples and unit tests. I’ll consider each of these strategies in the following three subsections, noting their implications for shortening package check times and reducing bundled package size.

Example input objects

An approach taken by several R packages in the {tidymodels} ecosystem to reduce package check time is to supply R data objects with an R package for use in examples and unit tests. As noted above, the inputs to {stacks}’ add_candidates are the culmination of a significant amount of runtime. Rather than regenerating these objects each time some functionality is to be demonstrated, the package can supply a set of R data objects with the package that can simply be loaded and passed to {stacks} functions as needed. In this way, the runtime of an example or unit test is limited only to the time required by {stacks} to carry out its functionality, eliminating the need to take up package check time carrying out operations implemented in other packages.

To this end, the {stacks} package provides a collection of R data objects for use in examples and unit tests. The objects are based on tree_frogs, a subset of an experimental data set from a study of tree frog embryo hatching (Jung, 2020).

tree_frogs

## # A tibble: 1,212 x 7
##    clutch treatment  reflex    age t_o_d     hatched latency
##    <fct>  <chr>      <fct>   <dbl> <chr>     <chr>     <dbl>
##  1 168    control    full   466965 morning   yes          22
##  2 145    gentamicin full   404310 afternoon no           NA
##  3 149    gentamicin full   426220 night     no           NA
##  4 100    control    mid    355360 night     no           NA
##  5 230    gentamicin mid    356535 night     no           NA
##  6 99     control    low    361180 night     yes         360
##  7 145    gentamicin full   400070 afternoon no           NA
##  8 133    control    full   401595 afternoon yes         106
##  9 100    control    mid    357810 night     yes         180
## 10 182    control    mid    358410 night     no           NA
## # … with 1,202 more rows
…
