The tidymodels is getting a whole lot faster | Simon P. Couch – Simon P. Couch
…
A graphic representing the tidymodels interface. In order, step 1 “translate”, step 2 “call”, and step 3 “translate”, outline the process of translating from the standardized tidymodels interface to an engine’s specific interface, calling the modeling engine, and translating back to the standardized tidymodels interface. Step 1 and step 3 are in green, while step 2 is in orange.

When thinking about the time allotted to each of the three steps above, we refer to the “translate” steps in green as the tidymodels overhead. The time it takes to “translate” interfaces in steps 1) and 3) is within our control, while the time the modeling engine takes to do it’s thing in step 2) is not.

Let’s demonstrate with an example classification problem. Generating some random data:

d <- sim_classification(num_samples = 100)

d
## # A tibble: 100 × 16
##    class   two_factor_1 two_factor_2 non_linear_1 non_linear_2 non_linear_3
##    <fct>          <dbl>        <dbl>        <dbl>        <dbl>        <dbl>
##  1 class_1       -0.661       -0.165       0.691        0.668        0.571 
##  2 class_2       -1.09        -0.846       0.749        0.0735       0.934 
##  3 class_2        1.34         0.957      -0.240        0.424        0.186 
##  4 class_2       -1.05         0.704      -0.500        0.0914       0.790 
##  5 class_1       -2.41        -2.29        0.868        0.507        0.0417
##  6 class_2       -1.19        -1.55       -0.475        0.258        0.776 
##  7 class_2        0.184       -0.960      -0.766        0.626        0.411 
##  8 class_1       -1.29        -0.636       0.998        0.616        0.997 
##  9 class_1        0.233        0.877      -0.0455       0.412        0.720 
## 10 class_1       -2.82        -0.910       0.182        0.991        0.994 
## # … with 90 more rows, and 10 more variables: linear_01 <dbl>, linear_02 <dbl>,
## #   linear_03 <dbl>, linear_04 <dbl>, linear_05 <dbl>, linear_06 <dbl>,
## #   linear_07 <dbl>, linear_08 <dbl>, linear_09 <dbl>, linear_10 <dbl>
…
