When plotting, LLMs see what they expect to see | Simon P. Couch – Simon P. Couch
…
We discovered this phenomenon when working on coding agents like Databot and Positron Assistant, where generating and interpreting plots is a core capability. These agents assist data scientists by running Python and R code and looking at the results. What does it mean if those agents can’t truly “see” these plots to the extent that they’d look further if some plotted trend disagreed with their expectations?

In practice

In reality, it’s not often the case that data scientists are secretly modifying base datasets to try and trick these models in the way that we do above. So, we also tested these models in more subtle situations, where we name datasets and variables in a way that suggests some intuitive relationship will likely be observed, but the actual relationship present in the data shows the opposite (or shows no relationship at all).

For example, we can generate some data weekly study time and exam scores that looks like this:

students

# A tibble: 75 × 2
   study_hours_weekly exam_score
                <dbl>      <dbl>
 1              20.2        85.6
 2               8.31       62.1
 3               8.09       60.1
 4              24.4        92.9
 5              32.1        63.9
 6              29.1        60.6
 7              23.9        89.7
 8              34.2        61.7
 9              14.8        58.8
10              28.4        64.3
# ℹ 65 more rows
…
