Kimi K2 and R Coding | Simon P. Couch – Simon P. Couch
…
Note

While the total durations of the evaluations are correct in the viewer, the timings of specific samples are now estimated. Given some changes in downstream packages, vitals has to estimate how long a given request takes rather than receiving the exact duration; this will be resolved down the line.

Analysis

At this point, we have access to are_eval, a data frame containing all of the results collected during the evaluation.

are_eval

# A tibble: 504 × 5
   model   id                          epoch score metadata         
   <fct>   <chr>                       <int> <ord> <list>           
 1 Kimi K2 after-stat-bar-heights          1 I     <tibble [1 × 10]>
 2 Kimi K2 after-stat-bar-heights          2 I     <tibble [1 × 10]>
 3 Kimi K2 after-stat-bar-heights          3 I     <tibble [1 × 10]>
 4 Kimi K2 conditional-grouped-summary     1 I     <tibble [1 × 10]>
 5 Kimi K2 conditional-grouped-summary     2 I     <tibble [1 × 10]>
 6 Kimi K2 conditional-grouped-summary     3 I     <tibble [1 × 10]>
 7 Kimi K2 correlated-delays-reasoning     1 C     <tibble [1 × 10]>
 8 Kimi K2 correlated-delays-reasoning     2 I     <tibble [1 × 10]>
 9 Kimi K2 correlated-delays-reasoning     3 P     <tibble [1 × 10]>
10 Kimi K2 curl-http-get                   1 P     <tibble [1 × 10]>
# ℹ 494 more rows
…
