Evaluating the new Gemini 2.5 Pro update on R coding | Simon P. Couch – Simon P. Couch
…
are_eval

# A tibble: 310 × 5
   model                id                        epoch score metadata
   <fct>                <chr>                     <int> <ord> <list>  
 1 Gemini 2.5 Pro (New) after-stat-bar-heights        1 I     <tibble>
 2 Gemini 2.5 Pro (New) after-stat-bar-heights        2 C     <tibble>
 3 Gemini 2.5 Pro (New) after-stat-bar-heights        3 I     <tibble>
 4 Gemini 2.5 Pro (New) conditional-grouped-summ…     1 P     <tibble>
 5 Gemini 2.5 Pro (New) conditional-grouped-summ…     2 P     <tibble>
 6 Gemini 2.5 Pro (New) conditional-grouped-summ…     3 I     <tibble>
 7 Gemini 2.5 Pro (New) correlated-delays-reason…     1 C     <tibble>
 8 Gemini 2.5 Pro (New) correlated-delays-reason…     2 P     <tibble>
 9 Gemini 2.5 Pro (New) correlated-delays-reason…     3 C     <tibble>
10 Gemini 2.5 Pro (New) curl-http-get                 1 C     <tibble>
# ℹ 300 more rows
…
