Analyzing my own music listening data with R and the tidyverse | Simon P. Couch – Simon P. Couch
…
devtools::install_github("simonpcouch/wrapped")

The wrap_library() function takes in the path to your Library.xml file, and the year of interest, and outputs a tidy data frame with your listening data. A la:

wrap_library("Library.xml", 2022L)

The source code is here, for those curious.

I also packaged up some example output of this function with the wrapped data frame loaded with the package. It contains my listening data from 2022, which is a bit borked. 1

library(wrapped)

wrapped
## # A tibble: 594 × 8
##       id track_title         artist album genre date_added skip_count play_count
##    <int> <chr>               <chr>  <chr> <chr> <date>          <dbl>      <dbl>
##  1 11452 Bag Of You          Mahal… Bag … R&B/… 2022-11-11          3        102
##  2 11040 The Internet        Viole… If I… Indi… 2022-08-04          2         87
##  3 11041 Settle              Viole… If I… Indi… 2022-08-04          2         87
##  4 11170 Half My Life        Viole… Lone… Pop   2022-09-08          4         80
##  5 11317 The Problem Song    Valley The … Indi… 2022-10-08         NA         79
##  6 10976 WASTE TIME          Gwen … PHASE R&B/… 2022-07-21          3         74
##  7 10899 Good Things         Ken Y… Ceru… Sing… 2022-06-04          1         61
##  8 11268 pennies (voice mem… Tiny … penn… Sing… 2022-10-01          1         51
##  9 11169 When I Come Home    Viole… Lone… Pop   2022-09-08          1         50
## 10 10907 Small Doses         Ken Y… Ceru… Sing… 2022-06-04         NA         49
## # … with 584 more rows

Note that the data are already arranged in descending order of play count. I found myself arrange()ing by desc(play_count) after every summary, so though I’d skip that step when I could.

For easier printing in this blog post, I’ll rearrange this data to show the most commonly noted output:

wrapped <- 
  wrapped %>%
  select(-id) %>%
  relocate(date_added, skip_count, .after = everything()) %>%
  relocate(play_count, .before = everything())

wrapped
## # A tibble: 594 × 7
##    play_count track_title          artist      album genre date_added skip_count
##         <dbl> <chr>                <chr>       <chr> <chr> <date>          <dbl>
##  1        102 Bag Of You           Mahalia     Bag … R&B/… 2022-11-11          3
##  2         87 The Internet         Violet Ski… If I… Indi… 2022-08-04          2
##  3         87 Settle               Violet Ski… If I… Indi… 2022-08-04          2
##  4         80 Half My Life         Violet Ski… Lone… Pop   2022-09-08          4
##  5         79 The Problem Song     Valley      The … Indi… 2022-10-08         NA
##  6         74 WASTE TIME           Gwen Bunn   PHASE R&B/… 2022-07-21          3
##  7         61 Good Things          Ken Yates   Ceru… Sing… 2022-06-04          1
##  8         51 pennies (voice memo) Tiny Habits penn… Sing… 2022-10-01          1
##  9         50 When I Come Home     Violet Ski… Lone… Pop   2022-09-08          1
## 10         49 Small Doses          Ken Yates   Ceru… Sing… 2022-06-04         NA
## # … with 584 more rows
…
