Analyzing my own music listening data with R and the tidyverse (2023) | Simon P. Couch
…
Music app > File > Library > Export Library

…to export a .xml file. Last year, I griped about how much of a pain in the ass it was to tidy the resulting output. This year, we can all just install the package I wrote last year and forget about our woes:

pak::pak("simonpcouch/wrapped")

The wrapped package contains a function, wrap_library(), to tidy that .xml file into a tabular data frame.

library(wrapped)

wrapped <- wrap_library("data/Library.xml", 2022:2023)

wrapped

# A tibble: 12,545 × 8
      id track_title         artist album genre date_added skip_count play_count
   <int> <chr>               <chr>  <chr> <chr> <date>          <dbl>      <dbl>
 1 11729 Atom                Mediu… Heal… Indi… 2023-02-11         15        234
 2 11862 Reelin'             Matt … Ever… Indi… 2023-03-24         19        208
 3 11732 Gimme Back My Soul  Mediu… Heal… Indi… 2023-02-11         11        195
 4 12179 Swim                Noah … If T… Sing… 2023-07-21         11        191
 5 11733 Never Learned To D… Mediu… Heal… Indi… 2023-02-11         12        161
 6 12088 Get The Girl        Seafo… Get … Coun… 2023-06-16         26        159
 7 11855 Everything's Fine   Matt … Ever… Indi… 2023-03-24         12        153
 8 11656 Never Learned To D… Mediu… Neve… Indi… 2022-12-26          6        143
 9 12388 Desert Land         Matt … Dese… Indi… 2023-10-22         11        141
10 12097 Given               Justi… Dayd… R&B/… 2023-06-16         11        132
# ℹ 12,535 more rows

After that, Spotify Wrapped is just group_by() %>% summarize() %>% arrange() in a trench coat.🧥

For easier printing in this blog post, I’ll rearrange this data to show the most commonly noted output:

wrapped <- 
  wrapped %>%
  select(-id) %>%
  relocate(date_added, skip_count, .after = everything()) %>%
  relocate(play_count, .before = everything())

wrapped

# A tibble: 12,545 × 7
   play_count track_title            artist    album genre date_added skip_count
        <dbl> <chr>                  <chr>     <chr> <chr> <date>          <dbl>
 1        234 Atom                   Medium B… Heal… Indi… 2023-02-11         15
 2        208 Reelin'                Matt Cor… Ever… Indi… 2023-03-24         19
 3        195 Gimme Back My Soul     Medium B… Heal… Indi… 2023-02-11         11
 4        191 Swim                   Noah Gun… If T… Sing… 2023-07-21         11
 5        161 Never Learned To Dance Medium B… Heal… Indi… 2023-02-11         12
 6        159 Get The Girl           Seaforth  Get … Coun… 2023-06-16         26
 7        153 Everything's Fine      Matt Cor… Ever… Indi… 2023-03-24         12
 8        143 Never Learned To Dance Medium B… Neve… Indi… 2022-12-26          6
 9        141 Desert Land            Matt Cor… Dese… Indi… 2023-10-22         11
10        132 Given                  Justin N… Dayd… R&B/… 2023-06-16         11
# ℹ 12,535 more rows
…
