How Good Is Gemini 2.5 Pro at Writing R Code? | Simon P. Couch – Simon P. Couch
…
are_eval

# A tibble: 336 × 5
   model                          id epoch score metadata         
   <fct>                       <int> <int> <ord> <list>           
 1 Gemini 2.5 Pro Experimental     1     1 I     <tibble [1 × 11]>
 2 Gemini 2.5 Pro Experimental     1     2 I     <tibble [1 × 11]>
 3 Gemini 2.5 Pro Experimental     1     3 I     <tibble [1 × 11]>
 4 Gemini 2.5 Pro Experimental     2     1 I     <tibble [1 × 11]>
 5 Gemini 2.5 Pro Experimental     2     2 P     <tibble [1 × 11]>
 6 Gemini 2.5 Pro Experimental     2     3 I     <tibble [1 × 11]>
 7 Gemini 2.5 Pro Experimental     3     1 C     <tibble [1 × 11]>
 8 Gemini 2.5 Pro Experimental     3     2 C     <tibble [1 × 11]>
 9 Gemini 2.5 Pro Experimental     3     3 P     <tibble [1 × 11]>
10 Gemini 2.5 Pro Experimental     4     1 I     <tibble [1 × 11]>
# ℹ 326 more rows
…
