A new package for profiling parallel R code | Simon P. Couch – Simon P. Couch
…
Using future to define our parallelism strategy, we’ll set plan(multicore, workers = 5), indicating that we’d like to distribute computations across 5 cores using forking. By default, future disables forking from RStudio; I know that, in the context of building this README, this usage of forking is safe, so I’ll temporarily override that default with parallelly.fork.enable.

local_options(parallelly.fork.enable = TRUE)
plan(multicore, workers = 5)

Now, simulating some data:

set.seed(1)
dat <- sim_regression(1000000)

dat

# A tibble: 1,000,000 × 21
   outcome predictor_01 predictor_02 predictor_03 predictor_04 predictor_05
     <dbl>        <dbl>        <dbl>        <dbl>        <dbl>        <dbl>
 1    3.63       -1.88        0.872       -0.799       -0.0379       2.68  
 2   41.6         0.551      -2.47         2.37         3.90         5.18  
 3   -6.99       -2.51       -3.15         2.61         2.13         3.08  
 4   33.2         4.79        1.86        -2.37         4.27        -3.59  
 5   34.3         0.989      -0.315        3.08         2.56        -5.91  
 6   26.7        -2.46       -0.459        1.75        -5.24         5.04  
 7   21.4         1.46       -0.674       -0.894       -3.91        -3.38  
 8   21.7         2.21        1.28        -1.05        -0.561        2.99  
 9   -8.84        1.73        0.0725       0.0976       5.40         4.30  
10   24.5        -0.916      -0.223       -0.561       -4.12         0.0508
# ℹ 999,990 more rows
# ℹ 15 more variables: predictor_06 <dbl>, predictor_07 <dbl>,
#   predictor_08 <dbl>, predictor_09 <dbl>, predictor_10 <dbl>,
#   predictor_11 <dbl>, predictor_12 <dbl>, predictor_13 <dbl>,
#   predictor_14 <dbl>, predictor_15 <dbl>, predictor_16 <dbl>,
#   predictor_17 <dbl>, predictor_18 <dbl>, predictor_19 <dbl>,
#   predictor_20 <dbl>
…
res_mem

# A tibble: 46 × 8
      id time                  pid  ppid name           pct_cpu       rss    vms
   <dbl> <dttm>              <int> <int> <chr>            <dbl> <bch:byt> <bch:>
 1     1 2024-07-15 08:47:12 23227 23168 R               NA         1.2GB  393GB
 2     1 2024-07-15 08:47:12 22648 21210 rsession-arm64  NA      175.95MB  393GB
 3     2 2024-07-15 08:47:13 23252 23227 R               NA      543.59MB  393GB
 4     2 2024-07-15 08:47:13 23251 23227 R               NA      556.78MB  393GB
 5     2 2024-07-15 08:47:13 23250 23227 R               NA      563.22MB  393GB
 6     2 2024-07-15 08:47:13 23249 23227 R               NA      565.36MB  393GB
 7     2 2024-07-15 08:47:13 23248 23227 R               NA      596.19MB  393GB
 8     2 2024-07-15 08:47:13 23227 23168 R               62.0      1.25GB  393GB
 9     2 2024-07-15 08:47:13 22648 21210 rsession-arm64   0.399  175.95MB  393GB
10     3 2024-07-15 08:47:14 23252 23227 R               98.5    744.69MB  393GB
# ℹ 36 more rows
…
