Optimizing model parameters faster with tidymodels | Simon P. Couch
…
        August 4, 2023

Especially for large amounts of data or large grids of parameters, the time and resources needed to tune statistical models can quickly become a barrier to getting machine learning models deployed. Many examples online demonstrating how to tune hyperparameters with tidymodels use tune_grid() on one CPU core. Making use of parallel processing and using a near-drop-in replacement for tune_grid() can speed up hyperparameter tuning by 20-30x!

Setup: grid search

In many examples online demonstrating machine learning with tidymodels, grid search via tune_grid() is the workhorse behind tuning hyperparameters. tune_grid() computes a set of performance metrics for a set of candidate model parameters across resamples of data; the parameters that result in the most performant models can then be used to train a model on the entire training set. We’ll quickly put together an example grid search with tune_grid() to benchmark how long it takes before introducing two strategies to speed the process up—parallel processing and racing via ANOVA.

We’ll make use of the ames housing data included as part of the tidymodels meta-package to demonstrate hyperparameter tuning with grid search.

library(tidymodels)

ames
## # A tibble: 2,930 × 74
##    MS_SubClass            MS_Zoning Lot_Frontage Lot_Area Street Alley Lot_Shape
##  * <fct>                  <fct>            <dbl>    <int> <fct>  <fct> <fct>    
##  1 One_Story_1946_and_Ne… Resident…          141    31770 Pave   No_A… Slightly…
##  2 One_Story_1946_and_Ne… Resident…           80    11622 Pave   No_A… Regular  
##  3 One_Story_1946_and_Ne… Resident…           81    14267 Pave   No_A… Slightly…
##  4 One_Story_1946_and_Ne… Resident…           93    11160 Pave   No_A… Regular  
##  5 Two_Story_1946_and_Ne… Resident…           74    13830 Pave   No_A… Slightly…
##  6 Two_Story_1946_and_Ne… Resident…           78     9978 Pave   No_A… Slightly…
##  7 One_Story_PUD_1946_an… Resident…           41     4920 Pave   No_A… Regular  
##  8 One_Story_PUD_1946_an… Resident…           43     5005 Pave   No_A… Slightly…
##  9 One_Story_PUD_1946_an… Resident…           39     5389 Pave   No_A… Slightly…
## 10 Two_Story_1946_and_Ne… Resident…           60     7500 Pave   No_A… Regular  
## # ℹ 2,920 more rows
## # ℹ 67 more variables: Land_Contour <fct>, Utilities <fct>, Lot_Config <fct>,
## #   Land_Slope <fct>, Neighborhood <fct>, Condition_1 <fct>, Condition_2 <fct>,
## #   Bldg_Type <fct>, House_Style <fct>, Overall_Cond <fct>, Year_Built <int>,
## #   Year_Remod_Add <int>, Roof_Style <fct>, Roof_Matl <fct>,
## #   Exterior_1st <fct>, Exterior_2nd <fct>, Mas_Vnr_Type <fct>,
## #   Mas_Vnr_Area <dbl>, Exter_Cond <fct>, Foundation <fct>, Bsmt_Cond <fct>, …
…
Or, picking out the best tuning parameter combination according to the root mean squared error (RMSE):

collect_metrics(bt_res_grid) %>%
  filter(.metric == "rmse") %>%
  arrange(mean)
## # A tibble: 50 × 10
##    learn_rate stop_iter num_leaves deg_free .metric .estimator   mean     n
##         <dbl>     <int>      <int>    <int> <chr>   <chr>       <dbl> <int>
##  1    0.00713        19         45       15 rmse    standard   0.0751    20
##  2    0.0211          7         17        2 rmse    standard   0.0759    20
##  3    0.00960        16         82       12 rmse    standard   0.0760    20
##  4    0.0129         12         65        4 rmse    standard   0.0763    20
##  5    0.00317         5         37       11 rmse    standard   0.0764    20
##  6    0.0416          3         72       13 rmse    standard   0.0784    20
##  7    0.0494         11         57        9 rmse    standard   0.0801    20
##  8    0.00198        15         71        6 rmse    standard   0.0811    20
##  9    0.00473         7          6       10 rmse    standard   0.0812    20
## 10    0.0921          6         53       12 rmse    standard   0.0816    20
## # ℹ 40 more rows
## # ℹ 2 more variables: std_err <dbl>, .config <chr>
…
