Down the submodels rabbit hole with tidymodels | Simon P. Couch
…
We tried out values for n ranging from 2 to 14. With respect to root mean squared error, at least, more neighbors meant more error.

Nice! Maybe a bit less cozy, but moderately so.

Off the deep end we go! Let’s use another collection function, collect_extracts(), to bind together the extracted objects:

collect_extracts(res)

## # A tibble: 24 × 4
##    id    neighbors .extracts  .config             
##    <chr>     <int> <list>     <chr>               
##  1 Fold1        14 <trn.kknn> Preprocessor1_Model1
##  2 Fold1        14 <trn.kknn> Preprocessor1_Model2
##  3 Fold1        14 <trn.kknn> Preprocessor1_Model3
##  4 Fold1        14 <trn.kknn> Preprocessor1_Model4
##  5 Fold1        14 <trn.kknn> Preprocessor1_Model5
##  6 Fold1        14 <trn.kknn> Preprocessor1_Model6
##  7 Fold1        14 <trn.kknn> Preprocessor1_Model7
##  8 Fold1        14 <trn.kknn> Preprocessor1_Model8
##  9 Fold2        14 <trn.kknn> Preprocessor1_Model1
## 10 Fold2        14 <trn.kknn> Preprocessor1_Model2
## # ℹ 14 more rows
…
…and yet collect_extracts() associates all of those .configs with the same neighbors value:

collect_extracts(res)

## # A tibble: 24 × 4
##    id    neighbors .extracts  .config             
##    <chr>     <int> <list>     <chr>               
##  1 Fold1        14 <trn.kknn> Preprocessor1_Model1
##  2 Fold1        14 <trn.kknn> Preprocessor1_Model2
##  3 Fold1        14 <trn.kknn> Preprocessor1_Model3
##  4 Fold1        14 <trn.kknn> Preprocessor1_Model4
##  5 Fold1        14 <trn.kknn> Preprocessor1_Model5
##  6 Fold1        14 <trn.kknn> Preprocessor1_Model6
##  7 Fold1        14 <trn.kknn> Preprocessor1_Model7
##  8 Fold1        14 <trn.kknn> Preprocessor1_Model8
##  9 Fold2        14 <trn.kknn> Preprocessor1_Model1
## 10 Fold2        14 <trn.kknn> Preprocessor1_Model2
## # ℹ 14 more rows
…
Metrics come from predictions, of which there are many. Extracts come from fitted models, of which there is only one.

Once we put a finger to what was going on here, the tidymodels team ultimately decided this is probably the right way to go about it, UI-wise. The output raises an eyebrow, though it really ought to. If a user extracts values from the fitted workflows assuming there really are several models fitted with different values of n, they may erroneously make conclusions about those extracted values. If a user does notice this effect, though, and concludes that it’s okay that the extracted values arise from the same models, the output looks exactly the way it would (other than hyperparameter values) if there were no submodel trick at play; all of the benefits of type stability apply.

Other Options

So, we ultimately opted not to make any changes to functionality here, just improving the documentation we have. Some other options we considered, labeled with the conclusions we ultimately came to about each of them:

Misleading

We could backtrack in the source code and make sure that every neighbors entry is paired with the .config entry it’s associated with elsewhere in the output. For example, the collect_extracts(res) results from above might look something like:

collect_extracts(res)

## # A tibble: 24 × 4
##    id    neighbors .extracts  .config             
##    <chr>     <int> <list>     <chr>               
##  1 Fold1         2 <trn.kknn> Preprocessor1_Model1
##  2 Fold1         5 <trn.kknn> Preprocessor1_Model2
##  3 Fold1         6 <trn.kknn> Preprocessor1_Model3
##  4 Fold1         8 <trn.kknn> Preprocessor1_Model4
##  5 Fold1         9 <trn.kknn> Preprocessor1_Model5
##  6 Fold1        11 <trn.kknn> Preprocessor1_Model6
##  7 Fold1        13 <trn.kknn> Preprocessor1_Model7
##  8 Fold1        14 <trn.kknn> Preprocessor1_Model8
##  9 Fold2         2 <trn.kknn> Preprocessor1_Model1
## 10 Fold2         4 <trn.kknn> Preprocessor1_Model2
## # ℹ 14 more rows
…
