Evaluating o3 and o4-mini on R coding performance | Simon P. Couch – Simon P. Couch
…
are_eval

# A tibble: 546 × 6
   model                          id    epoch score metadata reasoning
   <fct>                          <chr> <int> <ord> <list>   <chr>    
 1 "Claude Sonnet 3.7\n(No Think… afte…     1 I     <tibble> Non-reas…
 2 "Claude Sonnet 3.7\n(No Think… afte…     2 I     <tibble> Non-reas…
 3 "Claude Sonnet 3.7\n(No Think… afte…     3 I     <tibble> Non-reas…
 4 "Claude Sonnet 3.7\n(No Think… cond…     1 P     <tibble> Non-reas…
 5 "Claude Sonnet 3.7\n(No Think… cond…     2 P     <tibble> Non-reas…
 6 "Claude Sonnet 3.7\n(No Think… cond…     3 C     <tibble> Non-reas…
 7 "Claude Sonnet 3.7\n(No Think… corr…     1 P     <tibble> Non-reas…
 8 "Claude Sonnet 3.7\n(No Think… corr…     2 C     <tibble> Non-reas…
 9 "Claude Sonnet 3.7\n(No Think… corr…     3 P     <tibble> Non-reas…
10 "Claude Sonnet 3.7\n(No Think… curl…     1 I     <tibble> Non-reas…
# ℹ 536 more rows
…
