A Gentle Introduction to Tidy Model Stacking | Simon P. Couch – Simon P. Couch
…
wind_data_st

## # A data stack with 3 model definitions and 15 candidate members:
## #   lin_reg_res: 1 sub-model
## #   spline_res: 9 sub-models
## #   svm_res: 5 sub-models
## # Outcome: turbine_rated_capacity_kw (numeric)

As mentioned before, under the hood, a data_stack object is really just a tibble with some extra attributes. Checking out the actual data:

as_tibble(wind_data_st)

## # A tibble: 4,373 x 16
##    turbine_rated_c… lin_reg_res_1_1 spline_res_5_1 spline_res_7_1 spline_res_8_1
##               <dbl>           <dbl>          <dbl>          <dbl>          <dbl>
##  1              150           -74.5          -116.          -434.          -437.
##  2              600           502.            483.           407.           465.
##  3              600           662.            638.           555.           573.
##  4              600           649.            631.           537.           556.
##  5              600           690.            665.           580.           579.
##  6              660           731.            709.           656.           664.
##  7             1300           905.            903.           954.          1007.
##  8             1300           956.            949.           985.          1034.
##  9             1300           912.            907.           957.           996.
## 10             1300           940.            936.           988.          1036.
## # … with 4,363 more rows, and 11 more variables: spline_res_2_1 <dbl>,
## #   spline_res_3_1 <dbl>, spline_res_4_1 <dbl>, spline_res_1_1 <dbl>,
## #   spline_res_6_1 <dbl>, spline_res_9_1 <dbl>, svm_res_1_4 <dbl>,
## #   svm_res_1_2 <dbl>, svm_res_1_3 <dbl>, svm_res_1_5 <dbl>, svm_res_1_1 <dbl>
…
