…
  # Create named list
  setNames(key_values, key_names)
}

# Extract all tracks and convert to tibble
library_tibble <- map(tracks, extract_track_info) |>
  map(as_tibble) |>
  bind_rows()

library_tibble
```


```default
# A tibble: 14,876 × 47
   `Track ID` Name        Artist Album Genre Kind    Size
        <dbl> <chr>       <chr>  <chr> <chr> <chr>  <dbl>
 1       2698 Fixin' to … Bob D… Bob … Sing… MPEG… 3.56e6
 2       2700 In My Time… Bob D… Bob … Sing… MPEG… 3.98e6
 3       2702 House of t… Bob D… Bob … Sing… MPEG… 7.80e6
 4       2704 Pretty Peg… Bob D… Bob … Sing… MPEG… 5.03e6
 5       2706 Song to Wo… Bob D… Bob … Sing… MPEG… 4.08e6
 6       2708 Gospel Plow Bob D… Bob … Sing… MPEG… 2.75e6
 7       2710 Desolation… Bob D… High… Sing… MPEG… 2.73e7
 8       2712 Ballad Of … Bob D… High… Sing… MPEG… 1.43e7
 9       2714 Tombstone … Bob D… High… Sing… MPEG… 1.43e7
10       2716 Girl From … Bob D… The … Sing… MPEG… 8.14e6
# ℹ 14,866 more rows
# ℹ 40 more variables: `Total Time` <dbl>,
#   `Track Number` <dbl>, `Date Modified` <chr>,
#   `Date Added` <chr>, `Bit Rate` <dbl>,
#   `Sample Rate` <dbl>, Normalization <dbl>,
#   `Artwork Count` <dbl>, `Persistent ID` <chr>,
#   `Track Type` <chr>, Location <chr>, …
# ℹ Use `print(n = ...)` to see more rows
…
