Evaluating Gemini 2.5 Flash on R coding tasks | Simon P. Couch – Simon P. Couch
…
are_eval

# A tibble: 468 × 5
   model                       id                 epoch score metadata
   <fct>                       <chr>              <int> <ord> <list>  
 1 Gemini 2.5 Flash (Thinking) after-stat-bar-he…     1 I     <tibble>
 2 Gemini 2.5 Flash (Thinking) after-stat-bar-he…     2 I     <tibble>
 3 Gemini 2.5 Flash (Thinking) after-stat-bar-he…     3 I     <tibble>
 4 Gemini 2.5 Flash (Thinking) conditional-group…     1 P     <tibble>
 5 Gemini 2.5 Flash (Thinking) conditional-group…     2 C     <tibble>
 6 Gemini 2.5 Flash (Thinking) conditional-group…     3 C     <tibble>
 7 Gemini 2.5 Flash (Thinking) correlated-delays…     1 P     <tibble>
 8 Gemini 2.5 Flash (Thinking) correlated-delays…     2 P     <tibble>
 9 Gemini 2.5 Flash (Thinking) correlated-delays…     3 P     <tibble>
10 Gemini 2.5 Flash (Thinking) curl-http-get          1 C     <tibble>
# ℹ 458 more rows
…
